yesno,uniform,abc,zipf,anomaly,gauss
no,0.21158384496395133,C,7,0,-0.016727639843714913
yes,0.18948181751107096,C,2,0,-0.7582819615753134
yes,0.5276740641573562,B,1,0,1.5222958140503222
yes,0.18825519028863547,C,1,0,1.4946770402910197
yes,0.341309148364326,C,2,0,-0.903259872479528
no,0.15226357006533453,C,1,0,-0.8150962289823916
no,0.7068553054267189,C,21,0,-0.05353700501284783
yes,0.7545243524613338,C,4,0,0.08107893525560925
no,0.9073610694874632,C,2,0,-0.35316039221261725
maybe,0.2683062498253945,B,1,0,-0.38681613993739994
maybe,0.9181107506757402,B,1,0,-0.7186996793179541
yes,0.5078062978415349,A,3,0,-0.7097395908499593
yes,0.14124378817125394,C,1,0,-0.7073936493778403
yes,0.5748686156738422,B,4,0,1.099220685823169
yes,0.27913319816563464,B,1,0,-0.2880247653721929
no,0.05466878878147341,A,1,0,0.25883331600128245
yes,0.007298475800715742,A,1,0,0.7016525018982666
yes,0.6831776485792271,C,1,0,-0.9801946119249569
no,0.9927013417716123,C,1,0,-0.6512872294164211
yes,0.8548023780399137,A,1,0,-0.18611654407846775
yes,0.4417786782656631,C,1,0,-0.7758227662811709
no,0.672283353696946,A,2,0,-0.16700650309394557
maybe,0.032108315067785,C,1,0,0.9496235230012958
yes,0.563812636554633,A,12,0,0.3577812614791171
yes,0.7922127392350442,C,2,0,-0.12636777408522065
yes,0.5545283918036913,C,2,0,0.9858779044891866
yes,0.4353079321824266,A,1,0,-1.0220763465149865
yes,0.8022839106286583,B,1,0,1.611736128390172
yes,0.6756753651652023,A,2,0,-1.956135376948094
yes,0.47207108116244645,A,1,0,-0.8624714271231214
yes,0.9603890808819734,C,1,0,0.4915193033830687
no,0.2802660916476727,B,4,0,0.7608865205764377
no,0.057771794355189865,C,1,3,-0.027210031433803787
yes,0.34589645653399315,A,1,0,-0.5325753283717374
yes,0.47121438840591245,A,1,2,2.1879418031202427
yes,0.8111899380798957,B,1,0,1.4847258708943751
yes,0.9067508428391261,B,2,0,1.342455966002541
yes,0.18004844637881523,B,4,0,-1.5721044120607353
yes,0.7665610971202262,B,1,0,0.4730805908508664
no,0.7886908556429192,C,1,0,-0.5109775638120584
no,0.6041439753907794,C,1,0,-0.380171348691781
maybe,0.18067258830412491,B,2,0,0.9286309995590025
no,0.3252588455254598,A,1,0,-0.3332429815127733
no,0.7863059601754541,B,1,0,-0.15111577983053623
yes,0.22810301838313207,B,1,0,0.2580673782126134
yes,0.40143374531807985,A,61,0,0.10185871505046051
yes,0.9255128607623747,A,2,0,0.7064808676248904
no,0.7878440674470452,C,2,0,-2.5046030891739144
no,0.9840851851171801,B,1,0,2.0052994833460813
no,0.8536518896209673,B,2,0,0.6112860620901002
no,0.9503064479821122,A,4,0,0.28053298563199075
no,0.36295092420119557,B,4,0,-0.78887278939995
yes,0.8955267243902254,A,1,0,-1.4607139752793816
no,0.3445833137143547,B,1,0,0.9102563909915414
yes,0.6353245771188295,A,1,0,-0.025043679524864956
maybe,0.8015277444435124,C,4,0,0.4037311027246754
no,0.44508708992997903,B,1,0,-1.0180401928881093
yes,0.9849584840636609,C,2,0,-0.4925510202133868
no,0.5213183550710264,B,6,0,0.8751703533795647
maybe,0.7918335506569766,B,4,0,1.154697851994821
yes,0.0565942343645065,C,1,0,2.186667377585852
yes,0.16941048591323515,C,4,0,-1.248381293410421
no,0.9981531742201015,A,1,0,-1.2397717491659945
yes,0.32277101596588975,B,1,0,-0.10657971102686367
yes,0.6325276396960651,B,3,0,-0.774449751128064
yes,0.1373837405148728,B,4,0,1.2792974919211928
yes,0.9859051729272468,B,2,0,-0.833350835315186
yes,0.7553947870022744,B,4,0,0.2168757569656428
yes,0.20985798306917758,B,3,0,-0.9895180702008005
yes,0.1956189165462089,A,1,0,1.1575002894179036
no,0.254498534349068,B,1,0,-0.8460781092635683
yes,0.46966938674355085,B,3,0,-0.35422217729700683
yes,0.492525498055692,B,1,2,0.7702406113509271
yes,0.11052573527175802,A,4,0,2.155157527165976
no,0.490737924965126,A,1,0,0.36454214656322204
no,0.4142842250098394,A,8,0,-0.0029150281017271025
yes,0.5717867034293624,B,1,0,1.3255976983904862
no,0.7277158960149673,A,1,0,-0.6604651423735383
yes,0.20924789067133642,B,1,0,-1.2413808230141892
yes,0.18861393285923123,B,1,0,-1.578500143264187
yes,0.8815318643188678,A,1,0,0.4944780945506656
yes,0.9565091136199582,C,1,0,1.2098655811689933
maybe,0.44109125235942515,B,1,0,0.4449287288633898
yes,0.9134049333345959,B,1,0,-0.08271224865680406
yes,0.8388468278335944,A,1,0,1.1783902367835517
yes,0.5932172666086086,A,1,0,0.9336867443352665
no,0.4481994725569288,B,1,0,0.7459463620775882
no,0.79926710584029,C,1,0,-1.6903782299038532
yes,0.4888165794949778,A,1,3,-2.3922242650032124
yes,0.8881154551900525,B,1,0,0.9425497480611781
no,0.4040592274563165,B,1,0,0.7003538408998676
no,0.3852605608978673,B,5,0,-0.9616742881223097
yes,0.43481329020502213,C,2,0,-0.22957165630057685
yes,0.3351422008419135,B,2,2,0.4063042254654894
yes,0.37147620661921354,B,1,0,-0.4685618518665193
yes,0.18680378726702251,C,2,0,-0.4841673908240325
yes,0.8594051414236507,B,1,0,-0.18221326401876944
yes,0.26192420994802657,A,11,0,0.5652293034990906
no,0.44260642922267235,C,1,0,-0.2693549453968837
no,0.020384447693360452,A,13,0,-0.4152641521821672
maybe,10.254498534349068,D,1,5,-2.5460781092635683
