x,y
1.871236281691359693e+00,2.635917886574190128e+00
1.700929233183680278e+00,2.330811002259270737e+00
2.132338745201675323e+00,2.152039192272895196e+00
2.809288842071358872e+00,1.555297914536148740e+00
2.111805135048429261e+00,2.052047902232395860e+00
2.034243502954740102e+00,1.386374887224884223e+00
2.001570134409706991e+00,1.763516011187972410e+00
1.881882152020905030e+00,1.335770326368681760e+00
2.002148647237064427e+00,2.066267024504259364e+00
1.736061245207016324e+00,1.752811559279378262e+00
2.269307206315933190e+00,1.595448541078052562e+00
2.389888230269502589e+00,1.899292561194845685e+00
2.064663799309356396e+00,2.170454865247121390e+00
1.784224991332250765e+00,1.574241102880407750e+00
1.937474205100284452e+00,1.524095167531776429e+00
2.187958928737601116e+00,1.844758729645374018e+00
2.021010031957019226e+00,2.124151802883342377e+00
1.785233959683025784e+00,2.027387943713189422e+00
1.716729909092282069e+00,1.951332447607667220e+00
1.909403076948269717e+00,1.964351839945476907e+00
1.919221933118759660e+00,2.225757069465671201e+00
1.717320030631560579e+00,1.470248615851511342e+00
1.545134580690302073e+00,2.389357611922890534e+00
2.163394464405925977e+00,1.727816495387407114e+00
1.892648180136909275e+00,2.062915050874127854e+00
2.420844917122812578e+00,2.498747907248573874e+00
2.488773601232288968e+00,1.964534221094478728e+00
2.056358015827044472e+00,2.300519343788233861e+00
2.422429247341555847e+00,2.285699081481411987e+00
2.049667405000355380e+00,2.205577426232670835e+00
2.175875976803225420e+00,2.054902627346552713e+00
1.961166288732282270e+00,2.179729408436284821e+00
1.733257129959434595e+00,2.141006665517062757e+00
1.756275132722696419e+00,1.979694850017806207e+00
1.888767930775183457e+00,2.009485412069078158e+00
2.304473213117916863e+00,1.292839234278982286e+00
2.143956686514392640e+00,1.892070229204862564e+00
1.595070105293318496e+00,1.925206008326398655e+00
1.647573371459209124e+00,2.183782677603751665e+00
1.613566955595131969e+00,1.806758568832757206e+00
1.997233445301619170e+00,1.954922273743975980e+00
1.442803473633907263e+00,2.064355462605802050e+00
1.469711652779309041e+00,1.798665626759779368e+00
2.115248517193450084e+00,2.288883409151441839e+00
1.849838332511608341e+00,1.758710680353327671e+00
2.338494142253420893e+00,2.280151767230995663e+00
2.098954077799152884e+00,1.859904097254885036e+00
2.077471479726880954e+00,1.747868084003380895e+00
2.340203377399864060e+00,2.368525344965595636e+00
2.166735717824152641e+00,1.993511316063310890e+00
2.462014417109195996e+00,1.486934711649583907e+00
1.762586399111816471e+00,2.108836996053557566e+00
1.910685299385476155e+00,1.639935732591790041e+00
1.920423191802807183e+00,1.956285158401957824e+00
2.153124765846167854e+00,2.427392435198588494e+00
1.430283585870800289e+00,2.091271214800712208e+00
2.006418068064692140e+00,2.048359707330667856e+00
1.835434772674046977e+00,1.581301959219407749e+00
2.015012806043475990e+00,2.148538068944102264e+00
2.173465284620253346e+00,2.420788580783073574e+00
2.109014684416345542e+00,2.232104258285766196e+00
2.322969848290671990e+00,2.048393719932005030e+00
1.877649489306412400e+00,1.406470370571669903e+00
1.782447888497078914e+00,1.758160820307222982e+00
1.899317097517168040e+00,2.143553773337604884e+00
1.881036587051889253e+00,1.569940841655058650e+00
1.581517235203515837e+00,2.644502761278371139e+00
1.803647770144937379e+00,1.762670356139769856e+00
2.181013191303117438e+00,1.761787630516010505e+00
2.022424206435478489e+00,1.475597190141454629e+00
1.677505982442145660e+00,2.479798971880164515e+00
1.807390671265753035e+00,2.453449743204375366e+00
1.612377116043038239e+00,1.790523104399104781e+00
2.127732797930768083e+00,1.911822189424395413e+00
2.326140832035052508e+00,2.124592986568608843e+00
1.744614392013375870e+00,1.498285846608849781e+00
2.337008770353679932e+00,2.814178311452676162e+00
2.060310660858983844e+00,2.011651993216947432e+00
1.742490594547373872e+00,2.162998952779934481e+00
2.172145621422207906e+00,2.340566873130702774e+00
1.674520461375445635e+00,1.644102458472189277e+00
2.261842500860038019e+00,1.730594887119740299e+00
2.027539732108958770e+00,1.118600979973832565e+00
1.618055044390230846e+00,1.970849130609839017e+00
2.428427232431294325e+00,1.841758972617502543e+00
1.879931292938312515e+00,1.952991117676495580e+00
1.562827369805488420e+00,2.240395153303889497e+00
2.363987415412871052e+00,2.229536339222191188e+00
2.005684004208318161e+00,2.346417333550422590e+00
2.627643837004790317e+00,1.766822686717382185e+00
1.918039173627372751e+00,1.733846372211657050e+00
2.151901164477560968e+00,1.451844475318677663e+00
2.201408353920941696e+00,2.557258482016147472e+00
1.937075489839076292e+00,1.916983891924588734e+00
2.111045607362789678e+00,1.747588248718393578e+00
2.159959371370600678e+00,1.748341417517638607e+00
1.921812257659748058e+00,2.017536552364588509e+00
1.930572562140828730e+00,2.366727331174144133e+00
1.727880013530080250e+00,2.705486840177934837e+00
1.731321879665039587e+00,1.818264274522013668e+00
1.889975165136825286e+00,-5.666840103815340424e-01
1.135983272149133860e+00,-1.365466759605042046e+00
-2.080223542347880983e-01,-1.891757067623514699e+00
-1.922155756435601104e+00,-1.475529543574414015e+00
-6.083480130440306333e-01,3.036810716411585176e+00
2.470232567914298016e+00,7.313055136310886439e-02
-5.393151952926751314e-01,2.510612013412774068e-01
-7.555116390620886246e-01,1.560873224669146353e+00
-1.169063234227452508e+00,7.579527726470551841e-01
9.959353547742746393e-01,1.754189252934031273e+00
2.504394620999832455e-01,6.851915754671353831e-01
6.393700656880558775e-01,3.574642905191698361e-01
1.537150857855372088e+00,-5.596087896931787320e-01
2.999397557050977881e-01,7.153952096539195615e-01
-5.152710126704556082e-01,9.123401579197878419e-01
5.415859629470824999e-01,1.747807805696264261e-01
-6.204650189731135690e-01,9.271360671804469433e-01
-4.661722074083869405e-01,3.475554357941359029e+00
2.026472692399934772e+00,-7.694553353848438970e-01
-2.117133686203445109e-01,2.093699423603945675e+00
-1.831885262973211637e+00,3.539577801408643865e+00
3.662487417080217078e+00,-1.019843063168421882e-01
1.522121748282442510e+00,-9.347316605582345339e-01
2.260597153482152066e+00,-1.263164993545068393e+00
-1.185593744862172061e+00,2.590719131307760215e+00
6.123233995736766036e-17,1.000000000000000000e+00
6.087614290087206559e-01,7.933533402912351651e-01
3.407417371093168779e-02,2.411809548974792605e-01
7.071067811865475727e-01,7.071067811865474617e-01
2.588190451025209615e-01,9.659258262890682012e-01
1.866025403784438375e+00,-3.330669073875469621e-16
-9.659258262890682012e-01,2.588190451025210170e-01
-1.000000000000000000e+00,1.224646799147353207e-16
1.923879532511286738e+00,1.173165676349101627e-01
2.000000000000000000e+00,4.999999999999998890e-01
8.660254037844387076e-01,4.999999999999999445e-01
7.411809548974790385e-01,-4.659258262890682012e-01
2.066466597087647239e-01,-1.087614290087205449e-01
5.000000000000001110e-01,8.660254037844385966e-01
-1.305261922200513791e-01,9.914448613738104932e-01
1.000000000000000000e+00,0.000000000000000000e+00
4.999999999999998890e-01,-3.660254037844385966e-01
0.000000000000000000e+00,5.000000000000000000e-01
2.928932188134524273e-01,-2.071067811865474617e-01
1.793353340291234943e+00,-1.087614290087208779e-01
3.912385709912793441e-01,-2.933533402912351651e-01
-7.933533402912350541e-01,6.087614290087208779e-01
6.173165676349101627e-01,-4.238795325112867385e-01
8.694738077799483156e-01,-4.914448613738103822e-01
-4.999999999999997780e-01,8.660254037844387076e-01
-7.071067811865474617e-01,7.071067811865475727e-01
1.608761429008720434e+00,-2.933533402912353871e-01
1.991444861373810493e+00,3.694738077799479825e-01
9.914448613738103822e-01,1.305261922200515734e-01
-6.087614290087203228e-01,7.933533402912353871e-01
7.612046748871326152e-02,1.173165676349101627e-01
1.305261922200517122e-01,9.914448613738103822e-01
7.933533402912352761e-01,6.087614290087205449e-01
-2.588190451025206285e-01,9.659258262890683122e-01
9.659258262890683122e-01,2.588190451025207395e-01
-9.914448613738103822e-01,1.305261922200519897e-01
1.258819045102520739e+00,-4.659258262890683122e-01
-9.238795325112867385e-01,3.826834323650898928e-01
-8.660254037844384856e-01,5.000000000000003331e-01
1.339745962155612924e-01,0.000000000000000000e+00
1.382683432365089615e+00,-4.238795325112868495e-01
9.999999999999998890e-01,-5.000000000000000000e-01
3.826834323650898373e-01,9.238795325112867385e-01
-3.826834323650895042e-01,9.238795325112868495e-01
1.130526192220051351e+00,-4.914448613738104932e-01
9.238795325112867385e-01,3.826834323650897818e-01
1.965925826289068201e+00,2.411809548974790385e-01
8.555138626189617845e-03,3.694738077799484266e-01
1.707106781186547462e+00,-2.071067811865475727e-01
1.499999999999999778e+00,-3.660254037844387076e-01
